Unit2Project
…
## # A tibble: 3 × 6
##   species   bill_length_mm bill_depth_mm flipper_length_mm body_mass_g  year
##   <fct>              <dbl>         <dbl>             <dbl>       <dbl> <dbl>
## 1 Adelie              38.8          18.3              190.       3706. 2008.
## 2 Chinstrap           48.8          18.4              196.       3733. 2008.
## 3 Gentoo              47.6          15.0              217.       5092. 2008.

penguins%>%
  mutate(
    heavy = if_else(body_mass_g >= 4500, "heavy", "light")) %>%
  select(body_mass_g, heavy)

## # A tibble: 333 × 2
##    body_mass_g heavy
##          <int> <chr>
##  1        3750 light
##  2        3800 light
##  3        3250 light
##  4        3450 light
##  5        3650 light
##  6        3625 light
##  7        4675 heavy
##  8        3200 light
##  9        3800 light
## 10        4400 light
## # ℹ 323 more rows
…
penguins_selected <- penguins_clean %>%
  select(species, island, sex, where(is.numeric)
  )

ncol(penguins_selected)

## [1] 8

Q4

penguins_clean %>%
  select(starts_with("bill"))

## # A tibble: 333 × 2
##    bill_length_mm bill_depth_mm
##             <dbl>         <dbl>
##  1           39.1          18.7
##  2           39.5          17.4
##  3           40.3          18  
##  4           36.7          19.3
##  5           39.3          20.6
##  6           38.9          17.8
##  7           39.2          19.6
##  8           41.1          17.6
##  9           38.6          21.2
## 10           34.6          21.1
## # ℹ 323 more rows

penguins_clean %>%
  select(ends_with("_mm")) 

## # A tibble: 333 × 3
##    bill_length_mm bill_depth_mm flipper_length_mm
##             <dbl>         <dbl>             <int>
##  1           39.1          18.7               181
##  2           39.5          17.4               186
##  3           40.3          18                 195
##  4           36.7          19.3               193
##  5           39.3          20.6               190
##  6           38.9          17.8               181
##  7           39.2          19.6               195
##  8           41.1          17.6               182
##  9           38.6          21.2               191
## 10           34.6          21.1               198
## # ℹ 323 more rows

penguins_clean %>%
  select(matches("^(bill|flipper)"))

## # A tibble: 333 × 3
##    bill_length_mm bill_depth_mm flipper_length_mm
##             <dbl>         <dbl>             <int>
##  1           39.1          18.7               181
##  2           39.5          17.4               186
##  3           40.3          18                 195
##  4           36.7          19.3               193
##  5           39.3          20.6               190
##  6           38.9          17.8               181
##  7           39.2          19.6               195
##  8           41.1          17.6               182
##  9           38.6          21.2               191
## 10           34.6          21.1               198
## # ℹ 323 more rows
…
